<mxfile host="Electron" modified="2024-03-22T09:27:52.802Z" agent="Mozilla/5.0 (X11; Linux x86_64) AppleWebKit/537.36 (KHTML, like Gecko) draw.io/24.0.4 Chrome/120.0.6099.109 Electron/28.1.0 Safari/537.36" etag="VceI5_soBkmSKnZoACvo" version="24.0.4" type="device" pages="4">
  <diagram id="MYInwoPuTanlwZ0dN8-v" name="1 - Bla bla">
    <mxGraphModel dx="1311" dy="774" grid="1" gridSize="10" guides="1" tooltips="1" connect="1" arrows="1" fold="1" page="1" pageScale="1" pageWidth="827" pageHeight="1169" math="0" shadow="0">
      <root>
        <mxCell id="0" />
        <mxCell id="1" parent="0" />
        <mxCell id="vS9ERL7Yw6dVe58f7_RT-1" value="&lt;b&gt;Gestion de demandes de documents&lt;/b&gt;&lt;div&gt;version 20240322-1027&lt;/div&gt;" style="shape=process;whiteSpace=wrap;html=1;backgroundOutline=1;size=0.02631578947368421;fontSize=16;" vertex="1" parent="1">
          <mxGeometry x="30" y="20" width="760" height="60" as="geometry" />
        </mxCell>
        <mxCell id="PfiDowWxc44PnatPCR2o-9" value="&lt;div style=&quot;&quot;&gt;&lt;span style=&quot;background-color: initial;&quot;&gt;&lt;b&gt;une &quot;Liste des documents à fournir&quot;&lt;/b&gt;&lt;/span&gt;&lt;/div&gt;&lt;div&gt;&lt;br&gt;&lt;/div&gt;&lt;div&gt;&lt;div style=&quot;text-align: left;&quot;&gt;&lt;span style=&quot;background-color: initial;&quot;&gt;- il s&#39;agit d&#39;un &quot;formulaire web&quot; comme on en renseigne fréquemment&lt;/span&gt;&lt;/div&gt;&lt;div style=&quot;text-align: left;&quot;&gt;&lt;span style=&quot;background-color: initial;&quot;&gt;- des listes sont pré-établies&lt;/span&gt;&lt;/div&gt;&lt;div style=&quot;text-align: left;&quot;&gt;&lt;span style=&quot;background-color: initial;&quot;&gt;&lt;span style=&quot;white-space: pre;&quot;&gt;&#x9;&lt;/span&gt;- principe du &quot;modèle de document&quot; que l&#39;on a dans les suites bureautiques (MS Office, Libre Office)&lt;br&gt;&lt;/span&gt;&lt;/div&gt;&lt;div style=&quot;text-align: left;&quot;&gt;&lt;span style=&quot;background-color: initial;&quot;&gt;&lt;span style=&quot;white-space: pre;&quot;&gt;&#x9;&lt;/span&gt;- elle sont nommées&lt;br&gt;&lt;/span&gt;&lt;/div&gt;&lt;div style=&quot;text-align: left;&quot;&gt;&lt;span style=&quot;background-color: initial;&quot;&gt;&lt;span style=&quot;white-space: pre;&quot;&gt;&#x9;&lt;/span&gt;&lt;span style=&quot;white-space: pre;&quot;&gt;&#x9;&lt;/span&gt;- exemples: &quot;Dossier CAPE&quot;, &quot;Carte grise&quot;, &quot;Attestation Mutuelle&quot; ...&lt;/span&gt;&lt;/div&gt;&lt;div style=&quot;text-align: left;&quot;&gt;&lt;span style=&quot;background-color: initial;&quot;&gt;- une liste contient des zones de texte et des zones de document à&amp;nbsp;&lt;/span&gt;&lt;span style=&quot;background-color: initial;&quot;&gt;télécharger&lt;/span&gt;&lt;/div&gt;&lt;/div&gt;&lt;div style=&quot;text-align: left;&quot;&gt;&lt;span style=&quot;background-color: initial;&quot;&gt;- une zone est constituée d&#39;un label et de la donnée (texte ou document)&lt;/span&gt;&lt;/div&gt;&lt;div style=&quot;text-align: left;&quot;&gt;&lt;span style=&quot;background-color: initial;&quot;&gt;- un document peut être une image ou un PDF. Les autres formats sont refusés&lt;/span&gt;&lt;/div&gt;&lt;div style=&quot;text-align: left;&quot;&gt;&lt;span style=&quot;background-color: initial;&quot;&gt;&lt;br&gt;&lt;/span&gt;&lt;/div&gt;&lt;div style=&quot;text-align: left;&quot;&gt;&lt;b&gt;Évolutions pour version ultérieure&lt;/b&gt;&lt;/div&gt;&lt;div style=&quot;text-align: left;&quot;&gt;-&amp;nbsp;Pouvoir en créer une à la volée sans utiliser de &quot;modèle&quot;&lt;span style=&quot;background-color: initial;&quot;&gt;&lt;br&gt;&lt;/span&gt;&lt;/div&gt;" style="rounded=1;whiteSpace=wrap;html=1;align=center;verticalAlign=top;spacing=5;arcSize=8;" vertex="1" parent="1">
          <mxGeometry x="30" y="689" width="580" height="280" as="geometry" />
        </mxCell>
        <mxCell id="PfiDowWxc44PnatPCR2o-10" value="&lt;div style=&quot;&quot;&gt;&lt;span style=&quot;background-color: initial;&quot;&gt;&lt;b&gt;un &quot;Dossier&quot;&lt;/b&gt;&lt;/span&gt;&lt;/div&gt;&lt;div&gt;&lt;br&gt;&lt;/div&gt;&lt;div&gt;&lt;div style=&quot;text-align: left;&quot;&gt;&lt;span style=&quot;background-color: initial;&quot;&gt;- un dossier pour faciliter la gestion de récolte d&#39;informations textes et documents&lt;/span&gt;&lt;/div&gt;&lt;div style=&quot;text-align: left;&quot;&gt;&lt;span style=&quot;background-color: initial;&quot;&gt;- un dossier est actif, complet ou clôturé&lt;/span&gt;&lt;/div&gt;&lt;div style=&quot;text-align: left;&quot;&gt;&lt;br&gt;&lt;/div&gt;&lt;div style=&quot;text-align: left;&quot;&gt;&lt;b&gt;Dossier ouvert&lt;/b&gt;&lt;/div&gt;&lt;/div&gt;&lt;div style=&quot;text-align: left;&quot;&gt;&lt;span style=&quot;white-space: pre;&quot;&gt;&#x9;&lt;/span&gt;- des relances automatiques sont effectuées à &quot;Individu&quot; tant que le dossier n&#39;est pas complet&lt;br&gt;&lt;/div&gt;&lt;div style=&quot;text-align: left;&quot;&gt;&lt;span style=&quot;white-space: pre;&quot;&gt;&#x9;&lt;/span&gt;- &quot;Appui&quot; est notifié quand un dossier est complet&lt;br&gt;&lt;/div&gt;&lt;div style=&quot;text-align: left;&quot;&gt;&lt;span style=&quot;white-space: pre;&quot;&gt;&#x9;&lt;/span&gt;- &quot;Appui&quot; est notifié quand date d&#39;échéance est arrivée et que le dossier n&#39;est pas complet&lt;br&gt;&lt;/div&gt;&lt;div style=&quot;text-align: left;&quot;&gt;&lt;br&gt;&lt;/div&gt;&lt;div style=&quot;text-align: left;&quot;&gt;&lt;b&gt;Dossier complet&lt;/b&gt;&lt;/div&gt;&lt;div style=&quot;text-align: left;&quot;&gt;&lt;span style=&quot;white-space: pre;&quot;&gt;&#x9;&lt;/span&gt;- &quot;Appui&quot; peut consulter le dossier et visionner les documents sans les télécharger&lt;br&gt;&lt;/div&gt;&lt;div style=&quot;text-align: left;&quot;&gt;&lt;span style=&quot;white-space: pre;&quot;&gt;&#x9;&lt;/span&gt;- Si un élément n&#39;est pas conforme (illisible, erreur...) &quot;Appui&quot; désigne le ou les éléments à revoir et le dossier repasse en &quot;ouvert&quot; et &quot;Individu&quot; est automatiquement informé qu&#39;il faut revoir sa copie&lt;br&gt;&lt;/div&gt;&lt;div style=&quot;text-align: left;&quot;&gt;&lt;br&gt;&lt;/div&gt;&lt;div style=&quot;text-align: left;&quot;&gt;&lt;b&gt;Dossier clôturé&lt;/b&gt;&lt;/div&gt;&lt;div style=&quot;text-align: left;&quot;&gt;&lt;span style=&quot;white-space: pre;&quot;&gt;&#x9;&lt;/span&gt;- le dossier doit être complet&lt;br&gt;&lt;/div&gt;&lt;div style=&quot;text-align: left;&quot;&gt;&lt;span style=&quot;white-space: pre;&quot;&gt;&#x9;&lt;/span&gt;- les documents peuvent être téléchargés&amp;nbsp;&lt;span style=&quot;background-color: initial;&quot;&gt;individuellement ou dans une archive ZIP&lt;/span&gt;&lt;/div&gt;&lt;div style=&quot;text-align: left;&quot;&gt;&lt;span style=&quot;background-color: initial;&quot;&gt;&lt;span style=&quot;white-space: pre;&quot;&gt;&#x9;&lt;/span&gt;- les zones de texte sont assemblées en 1 document au format TXT ou ODT&lt;br&gt;&lt;/span&gt;&lt;/div&gt;&lt;div style=&quot;text-align: left;&quot;&gt;&lt;span style=&quot;background-color: initial;&quot;&gt;&lt;span style=&quot;white-space: pre;&quot;&gt;&#x9;&lt;/span&gt;- le dossier peut être supprimé&lt;br&gt;&lt;/span&gt;&lt;/div&gt;&lt;div style=&quot;text-align: left;&quot;&gt;&lt;span style=&quot;background-color: initial;&quot;&gt;&lt;span style=&quot;white-space: pre;&quot;&gt;&#x9;&lt;/span&gt;&lt;span style=&quot;white-space: pre;&quot;&gt;&#x9;&lt;/span&gt;- on peut garder une trace de la vie du dossier mais les données textes et documnets sont supprimées&lt;br&gt;&lt;/span&gt;&lt;/div&gt;" style="rounded=1;whiteSpace=wrap;html=1;align=center;verticalAlign=top;spacing=5;arcSize=8;" vertex="1" parent="1">
          <mxGeometry x="10" y="260" width="770" height="380" as="geometry" />
        </mxCell>
        <mxCell id="VP9X1UyaFz5tRdlcMxf0-1" value="&lt;div style=&quot;&quot;&gt;&lt;span style=&quot;background-color: initial;&quot;&gt;&lt;b&gt;Autres éléments de l&#39;outil&lt;/b&gt;&lt;/span&gt;&lt;/div&gt;&lt;div&gt;&lt;br&gt;&lt;/div&gt;&lt;div&gt;&lt;div style=&quot;text-align: left;&quot;&gt;&lt;span style=&quot;background-color: initial;&quot;&gt;- &quot;Appui&quot; se connecte à l&#39;outil avec son login du Cloud.artefacts.coop.&lt;/span&gt;&lt;/div&gt;&lt;div style=&quot;text-align: left;&quot;&gt;&lt;span style=&quot;background-color: initial;&quot;&gt;- &quot;Individu&quot; se connecte avec le lien contenu dans les emails ou saisi son email pour recevoir le lien&lt;/span&gt;&lt;/div&gt;&lt;div style=&quot;text-align: left;&quot;&gt;&lt;br&gt;&lt;/div&gt;&lt;/div&gt;" style="rounded=1;whiteSpace=wrap;html=1;align=center;verticalAlign=top;spacing=5;arcSize=8;" vertex="1" parent="1">
          <mxGeometry x="20" y="999" width="580" height="150" as="geometry" />
        </mxCell>
        <mxCell id="VP9X1UyaFz5tRdlcMxf0-2" value="&lt;div style=&quot;&quot;&gt;&lt;span style=&quot;background-color: initial;&quot;&gt;&lt;b&gt;Vocabulaire&lt;/b&gt;&lt;/span&gt;&lt;/div&gt;&lt;div&gt;&lt;br&gt;&lt;/div&gt;&lt;div&gt;&lt;div style=&quot;text-align: left;&quot;&gt;&lt;span style=&quot;background-color: initial;&quot;&gt;- &quot;Appui&quot; : une personne de l&#39;équipe d&#39;appui&lt;/span&gt;&lt;/div&gt;&lt;div style=&quot;text-align: left;&quot;&gt;&lt;span style=&quot;background-color: initial;&quot;&gt;- &quot;Individu&quot; : une personne dont l&#39;équipe d&#39;appui doit récupérer des informations&lt;/span&gt;&lt;/div&gt;&lt;div style=&quot;text-align: left;&quot;&gt;&lt;br&gt;&lt;/div&gt;&lt;/div&gt;" style="rounded=1;whiteSpace=wrap;html=1;align=center;verticalAlign=top;spacing=5;arcSize=8;" vertex="1" parent="1">
          <mxGeometry x="40" y="120" width="475" height="90" as="geometry" />
        </mxCell>
      </root>
    </mxGraphModel>
  </diagram>
  <diagram id="Z04RirC3EtfLWiyHsEAz" name="2 - Emails">
    <mxGraphModel dx="1714" dy="1012" grid="1" gridSize="10" guides="1" tooltips="1" connect="1" arrows="1" fold="1" page="1" pageScale="1" pageWidth="827" pageHeight="1169" math="0" shadow="0">
      <root>
        <mxCell id="0" />
        <mxCell id="1" parent="0" />
        <mxCell id="4Wr46l5aMdfyl80v4LVJ-4" value="" style="group" vertex="1" connectable="0" parent="1">
          <mxGeometry x="710" y="370" width="50" height="50" as="geometry" />
        </mxCell>
        <mxCell id="4Wr46l5aMdfyl80v4LVJ-5" value="" style="ellipse;whiteSpace=wrap;html=1;" vertex="1" parent="4Wr46l5aMdfyl80v4LVJ-4">
          <mxGeometry width="50" height="50" as="geometry" />
        </mxCell>
        <mxCell id="4Wr46l5aMdfyl80v4LVJ-6" value="Individu" style="shape=umlActor;verticalLabelPosition=bottom;verticalAlign=top;html=1;outlineConnect=0;fontStyle=1;fontSize=10;spacing=-6;" vertex="1" parent="4Wr46l5aMdfyl80v4LVJ-4">
          <mxGeometry x="20" y="6" width="10" height="20" as="geometry" />
        </mxCell>
        <mxCell id="4Wr46l5aMdfyl80v4LVJ-9" style="edgeStyle=orthogonalEdgeStyle;rounded=0;orthogonalLoop=1;jettySize=auto;html=1;" edge="1" parent="1" source="4Wr46l5aMdfyl80v4LVJ-11" target="4Wr46l5aMdfyl80v4LVJ-5">
          <mxGeometry relative="1" as="geometry" />
        </mxCell>
        <mxCell id="4Wr46l5aMdfyl80v4LVJ-10" value="" style="group" vertex="1" connectable="0" parent="1">
          <mxGeometry x="480" y="325" width="190" height="140" as="geometry" />
        </mxCell>
        <mxCell id="4Wr46l5aMdfyl80v4LVJ-11" value="Bonjour Prénom,&lt;div&gt;&lt;br&gt;&lt;/div&gt;&lt;div&gt;Pour renseigner ton dossier merci de te connecter sur le formulaire&lt;/div&gt;&lt;div&gt;&lt;br&gt;&lt;/div&gt;&lt;div&gt;&lt;br&gt;&lt;/div&gt;&lt;div&gt;&lt;br&gt;&lt;/div&gt;&lt;div&gt;La Team Artéfacts.&lt;/div&gt;" style="shape=document;whiteSpace=wrap;html=1;boundedLbl=1;align=left;size=0.125;verticalAlign=top;" vertex="1" parent="4Wr46l5aMdfyl80v4LVJ-10">
          <mxGeometry width="190" height="140" as="geometry" />
        </mxCell>
        <mxCell id="4Wr46l5aMdfyl80v4LVJ-12" value="Mon dossier" style="html=1;shadow=0;dashed=0;shape=mxgraph.bootstrap.rrect;rSize=5;fillColor=#0085FC;strokeColor=none;align=center;spacing=15;fontSize=14;fontColor=#ffffff;" vertex="1" parent="4Wr46l5aMdfyl80v4LVJ-10">
          <mxGeometry x="35" y="70" width="120" height="30" as="geometry" />
        </mxCell>
        <mxCell id="4Wr46l5aMdfyl80v4LVJ-16" value="" style="group" vertex="1" connectable="0" parent="1">
          <mxGeometry x="474" y="490" width="190" height="140" as="geometry" />
        </mxCell>
        <mxCell id="4Wr46l5aMdfyl80v4LVJ-17" value="Bonjour Prénom,&lt;div&gt;&lt;br&gt;&lt;/div&gt;&lt;div&gt;Ton dossier n&#39;est pas complet, merci de le compléter&lt;/div&gt;&lt;div&gt;&lt;br&gt;&lt;/div&gt;&lt;div&gt;&lt;br&gt;&lt;/div&gt;&lt;div&gt;&lt;br&gt;&lt;/div&gt;&lt;div&gt;La Team Artéfacts.&lt;/div&gt;" style="shape=document;whiteSpace=wrap;html=1;boundedLbl=1;align=left;size=0.125;verticalAlign=top;" vertex="1" parent="4Wr46l5aMdfyl80v4LVJ-16">
          <mxGeometry width="190" height="140" as="geometry" />
        </mxCell>
        <mxCell id="4Wr46l5aMdfyl80v4LVJ-18" value="Mon formulaire" style="html=1;shadow=0;dashed=0;shape=mxgraph.bootstrap.rrect;rSize=5;fillColor=#0085FC;strokeColor=none;align=center;spacing=15;fontSize=14;fontColor=#ffffff;" vertex="1" parent="4Wr46l5aMdfyl80v4LVJ-16">
          <mxGeometry x="35" y="70" width="120" height="30" as="geometry" />
        </mxCell>
        <mxCell id="4Wr46l5aMdfyl80v4LVJ-19" value="" style="group" vertex="1" connectable="0" parent="1">
          <mxGeometry x="714" y="535" width="50" height="50" as="geometry" />
        </mxCell>
        <mxCell id="4Wr46l5aMdfyl80v4LVJ-20" value="" style="ellipse;whiteSpace=wrap;html=1;" vertex="1" parent="4Wr46l5aMdfyl80v4LVJ-19">
          <mxGeometry width="50" height="50" as="geometry" />
        </mxCell>
        <mxCell id="4Wr46l5aMdfyl80v4LVJ-21" value="Individu" style="shape=umlActor;verticalLabelPosition=bottom;verticalAlign=top;html=1;outlineConnect=0;fontStyle=1;fontSize=10;spacing=-6;" vertex="1" parent="4Wr46l5aMdfyl80v4LVJ-19">
          <mxGeometry x="20" y="6" width="10" height="20" as="geometry" />
        </mxCell>
        <mxCell id="4Wr46l5aMdfyl80v4LVJ-22" style="edgeStyle=orthogonalEdgeStyle;rounded=0;orthogonalLoop=1;jettySize=auto;html=1;" edge="1" parent="1" source="4Wr46l5aMdfyl80v4LVJ-17" target="4Wr46l5aMdfyl80v4LVJ-20">
          <mxGeometry relative="1" as="geometry">
            <mxPoint x="694" y="570" as="targetPoint" />
          </mxGeometry>
        </mxCell>
        <mxCell id="4Wr46l5aMdfyl80v4LVJ-23" value="" style="group" vertex="1" connectable="0" parent="1">
          <mxGeometry x="50" y="470" width="190" height="170" as="geometry" />
        </mxCell>
        <mxCell id="4Wr46l5aMdfyl80v4LVJ-24" value="Bonjour Prénom,&lt;div&gt;&lt;br&gt;&lt;/div&gt;&lt;div&gt;Le dossier de Machin Truc est arrivé à échéance mais n&#39;est toujours pas complet malgré les relances.&lt;/div&gt;&lt;div&gt;&lt;br&gt;&lt;/div&gt;&lt;div&gt;&lt;br&gt;&lt;/div&gt;&lt;div&gt;&lt;br&gt;&lt;/div&gt;&lt;div&gt;L&#39;outil pratique.&lt;/div&gt;" style="shape=document;whiteSpace=wrap;html=1;boundedLbl=1;align=left;size=0.125;verticalAlign=top;" vertex="1" parent="4Wr46l5aMdfyl80v4LVJ-23">
          <mxGeometry width="190" height="170" as="geometry" />
        </mxCell>
        <mxCell id="4Wr46l5aMdfyl80v4LVJ-25" value="Le dossier" style="html=1;shadow=0;dashed=0;shape=mxgraph.bootstrap.rrect;rSize=5;fillColor=#0085FC;strokeColor=none;align=center;spacing=15;fontSize=14;fontColor=#ffffff;" vertex="1" parent="4Wr46l5aMdfyl80v4LVJ-23">
          <mxGeometry x="35" y="97" width="120" height="30" as="geometry" />
        </mxCell>
        <mxCell id="4Wr46l5aMdfyl80v4LVJ-26" value="" style="group" vertex="1" connectable="0" parent="1">
          <mxGeometry x="270" y="530" width="50" height="50" as="geometry" />
        </mxCell>
        <mxCell id="4Wr46l5aMdfyl80v4LVJ-27" value="" style="ellipse;whiteSpace=wrap;html=1;" vertex="1" parent="4Wr46l5aMdfyl80v4LVJ-26">
          <mxGeometry width="50" height="50" as="geometry" />
        </mxCell>
        <mxCell id="4Wr46l5aMdfyl80v4LVJ-28" value="Appui" style="shape=umlActor;verticalLabelPosition=bottom;verticalAlign=top;html=1;outlineConnect=0;fontStyle=1;fontSize=10;spacing=-6;" vertex="1" parent="4Wr46l5aMdfyl80v4LVJ-26">
          <mxGeometry x="20" y="8" width="10" height="20" as="geometry" />
        </mxCell>
        <mxCell id="4Wr46l5aMdfyl80v4LVJ-29" style="edgeStyle=orthogonalEdgeStyle;rounded=0;orthogonalLoop=1;jettySize=auto;html=1;" edge="1" parent="1" source="4Wr46l5aMdfyl80v4LVJ-24" target="4Wr46l5aMdfyl80v4LVJ-27">
          <mxGeometry relative="1" as="geometry" />
        </mxCell>
        <mxCell id="4Wr46l5aMdfyl80v4LVJ-30" value="" style="group" vertex="1" connectable="0" parent="1">
          <mxGeometry x="60" y="290" width="280" height="170" as="geometry" />
        </mxCell>
        <mxCell id="4Wr46l5aMdfyl80v4LVJ-31" value="Bonjour Prénom,&lt;div&gt;&lt;br&gt;&lt;/div&gt;&lt;div&gt;Le dossier de Machin Truc est complet&lt;/div&gt;&lt;div&gt;&lt;br&gt;&lt;/div&gt;&lt;div&gt;&lt;br&gt;&lt;/div&gt;&lt;div&gt;&lt;br&gt;&lt;/div&gt;&lt;div&gt;L&#39;outil pratique.&lt;/div&gt;" style="shape=document;whiteSpace=wrap;html=1;boundedLbl=1;align=left;size=0.125;verticalAlign=top;" vertex="1" parent="4Wr46l5aMdfyl80v4LVJ-30">
          <mxGeometry x="-10" y="15" width="190" height="140" as="geometry" />
        </mxCell>
        <mxCell id="4Wr46l5aMdfyl80v4LVJ-32" value="Le dossier" style="html=1;shadow=0;dashed=0;shape=mxgraph.bootstrap.rrect;rSize=5;fillColor=#0085FC;strokeColor=none;align=center;spacing=15;fontSize=14;fontColor=#ffffff;" vertex="1" parent="4Wr46l5aMdfyl80v4LVJ-30">
          <mxGeometry x="25" y="84" width="120" height="30" as="geometry" />
        </mxCell>
        <mxCell id="4Wr46l5aMdfyl80v4LVJ-33" value="" style="group" vertex="1" connectable="0" parent="4Wr46l5aMdfyl80v4LVJ-30">
          <mxGeometry x="230" y="45" width="50" height="50" as="geometry" />
        </mxCell>
        <mxCell id="4Wr46l5aMdfyl80v4LVJ-34" value="" style="ellipse;whiteSpace=wrap;html=1;" vertex="1" parent="4Wr46l5aMdfyl80v4LVJ-33">
          <mxGeometry width="50" height="50" as="geometry" />
        </mxCell>
        <mxCell id="4Wr46l5aMdfyl80v4LVJ-35" value="Appui" style="shape=umlActor;verticalLabelPosition=bottom;verticalAlign=top;html=1;outlineConnect=0;fontStyle=1;fontSize=10;spacing=-6;" vertex="1" parent="4Wr46l5aMdfyl80v4LVJ-33">
          <mxGeometry x="20" y="8" width="10" height="20" as="geometry" />
        </mxCell>
        <mxCell id="4Wr46l5aMdfyl80v4LVJ-36" style="edgeStyle=orthogonalEdgeStyle;rounded=0;orthogonalLoop=1;jettySize=auto;html=1;" edge="1" parent="4Wr46l5aMdfyl80v4LVJ-30" source="4Wr46l5aMdfyl80v4LVJ-31" target="4Wr46l5aMdfyl80v4LVJ-34">
          <mxGeometry relative="1" as="geometry" />
        </mxCell>
        <mxCell id="4Wr46l5aMdfyl80v4LVJ-37" value="" style="group" vertex="1" connectable="0" parent="1">
          <mxGeometry x="474" y="642" width="190" height="115" as="geometry" />
        </mxCell>
        <mxCell id="4Wr46l5aMdfyl80v4LVJ-38" value="Bonjour Prénom,&lt;div&gt;&lt;br&gt;&lt;/div&gt;&lt;div&gt;Merci, ton dossier est complet. Bidule Appui a été informé et va le traiter.&lt;/div&gt;&lt;div&gt;&lt;br&gt;&lt;/div&gt;&lt;div&gt;La Team Artéfacts.&lt;/div&gt;" style="shape=document;whiteSpace=wrap;html=1;boundedLbl=1;align=left;size=0.125;verticalAlign=top;" vertex="1" parent="4Wr46l5aMdfyl80v4LVJ-37">
          <mxGeometry width="190" height="115" as="geometry" />
        </mxCell>
        <mxCell id="4Wr46l5aMdfyl80v4LVJ-39" value="" style="group" vertex="1" connectable="0" parent="1">
          <mxGeometry x="704" y="662" width="50" height="50" as="geometry" />
        </mxCell>
        <mxCell id="4Wr46l5aMdfyl80v4LVJ-40" value="" style="ellipse;whiteSpace=wrap;html=1;" vertex="1" parent="4Wr46l5aMdfyl80v4LVJ-39">
          <mxGeometry width="50" height="50" as="geometry" />
        </mxCell>
        <mxCell id="4Wr46l5aMdfyl80v4LVJ-41" value="Individu" style="shape=umlActor;verticalLabelPosition=bottom;verticalAlign=top;html=1;outlineConnect=0;fontStyle=1;fontSize=10;spacing=-6;" vertex="1" parent="4Wr46l5aMdfyl80v4LVJ-39">
          <mxGeometry x="20" y="6" width="10" height="20" as="geometry" />
        </mxCell>
        <mxCell id="4Wr46l5aMdfyl80v4LVJ-42" style="edgeStyle=orthogonalEdgeStyle;rounded=0;orthogonalLoop=1;jettySize=auto;html=1;" edge="1" parent="1" source="4Wr46l5aMdfyl80v4LVJ-38" target="4Wr46l5aMdfyl80v4LVJ-40">
          <mxGeometry relative="1" as="geometry">
            <mxPoint x="694" y="722" as="targetPoint" />
          </mxGeometry>
        </mxCell>
        <mxCell id="e5NrmyHZaP1bOIjySJyk-1" value="" style="group" vertex="1" connectable="0" parent="1">
          <mxGeometry x="474" y="780" width="190" height="140" as="geometry" />
        </mxCell>
        <mxCell id="e5NrmyHZaP1bOIjySJyk-2" value="Bonjour Prénom,&lt;div&gt;&lt;br&gt;&lt;/div&gt;&lt;div&gt;Ton dossier doit être revu, des éléments ne sont pas corrects.&lt;/div&gt;&lt;div&gt;&lt;br&gt;&lt;/div&gt;&lt;div&gt;&lt;br&gt;&lt;/div&gt;&lt;div&gt;&lt;br&gt;&lt;/div&gt;&lt;div&gt;La Team Artéfacts.&lt;/div&gt;" style="shape=document;whiteSpace=wrap;html=1;boundedLbl=1;align=left;size=0.125;verticalAlign=top;" vertex="1" parent="e5NrmyHZaP1bOIjySJyk-1">
          <mxGeometry width="190" height="140" as="geometry" />
        </mxCell>
        <mxCell id="e5NrmyHZaP1bOIjySJyk-3" value="Mon formulaire" style="html=1;shadow=0;dashed=0;shape=mxgraph.bootstrap.rrect;rSize=5;fillColor=#0085FC;strokeColor=none;align=center;spacing=15;fontSize=14;fontColor=#ffffff;" vertex="1" parent="e5NrmyHZaP1bOIjySJyk-1">
          <mxGeometry x="35" y="70" width="120" height="30" as="geometry" />
        </mxCell>
        <mxCell id="e5NrmyHZaP1bOIjySJyk-4" value="" style="group" vertex="1" connectable="0" parent="1">
          <mxGeometry x="714" y="825" width="50" height="50" as="geometry" />
        </mxCell>
        <mxCell id="e5NrmyHZaP1bOIjySJyk-5" value="" style="ellipse;whiteSpace=wrap;html=1;" vertex="1" parent="e5NrmyHZaP1bOIjySJyk-4">
          <mxGeometry width="50" height="50" as="geometry" />
        </mxCell>
        <mxCell id="e5NrmyHZaP1bOIjySJyk-6" value="Individu" style="shape=umlActor;verticalLabelPosition=bottom;verticalAlign=top;html=1;outlineConnect=0;fontStyle=1;fontSize=10;spacing=-6;" vertex="1" parent="e5NrmyHZaP1bOIjySJyk-4">
          <mxGeometry x="20" y="6" width="10" height="20" as="geometry" />
        </mxCell>
        <mxCell id="e5NrmyHZaP1bOIjySJyk-7" style="edgeStyle=orthogonalEdgeStyle;rounded=0;orthogonalLoop=1;jettySize=auto;html=1;" edge="1" source="e5NrmyHZaP1bOIjySJyk-2" target="e5NrmyHZaP1bOIjySJyk-5" parent="1">
          <mxGeometry relative="1" as="geometry">
            <mxPoint x="694" y="860" as="targetPoint" />
          </mxGeometry>
        </mxCell>
        <mxCell id="e5NrmyHZaP1bOIjySJyk-8" value="" style="group" vertex="1" connectable="0" parent="1">
          <mxGeometry x="474" y="950" width="190" height="110" as="geometry" />
        </mxCell>
        <mxCell id="e5NrmyHZaP1bOIjySJyk-9" value="Bonjour Prénom,&lt;div&gt;&lt;br&gt;&lt;/div&gt;&lt;div&gt;Merci, ton dossier a été validé par Bidule Appui, l&#39;affaire est .&lt;/div&gt;&lt;div&gt;&lt;br&gt;&lt;/div&gt;&lt;div&gt;La Team Artéfacts.&lt;/div&gt;" style="shape=document;whiteSpace=wrap;html=1;boundedLbl=1;align=left;size=0.125;verticalAlign=top;" vertex="1" parent="e5NrmyHZaP1bOIjySJyk-8">
          <mxGeometry width="190" height="110" as="geometry" />
        </mxCell>
        <mxCell id="e5NrmyHZaP1bOIjySJyk-10" value="" style="group" vertex="1" connectable="0" parent="1">
          <mxGeometry x="704" y="970" width="50" height="50" as="geometry" />
        </mxCell>
        <mxCell id="e5NrmyHZaP1bOIjySJyk-11" value="" style="ellipse;whiteSpace=wrap;html=1;" vertex="1" parent="e5NrmyHZaP1bOIjySJyk-10">
          <mxGeometry width="50" height="50" as="geometry" />
        </mxCell>
        <mxCell id="e5NrmyHZaP1bOIjySJyk-12" value="Individu" style="shape=umlActor;verticalLabelPosition=bottom;verticalAlign=top;html=1;outlineConnect=0;fontStyle=1;fontSize=10;spacing=-6;" vertex="1" parent="e5NrmyHZaP1bOIjySJyk-10">
          <mxGeometry x="20" y="6" width="10" height="20" as="geometry" />
        </mxCell>
        <mxCell id="e5NrmyHZaP1bOIjySJyk-13" style="edgeStyle=orthogonalEdgeStyle;rounded=0;orthogonalLoop=1;jettySize=auto;html=1;" edge="1" source="e5NrmyHZaP1bOIjySJyk-9" target="e5NrmyHZaP1bOIjySJyk-11" parent="1">
          <mxGeometry relative="1" as="geometry">
            <mxPoint x="694" y="1030" as="targetPoint" />
          </mxGeometry>
        </mxCell>
        <mxCell id="E_x_SrU5HD-YoM1rR2ke-1" value="Les emails de demandes de documents" style="shape=process;whiteSpace=wrap;html=1;backgroundOutline=1;size=0.02631578947368421;fontSize=16;" vertex="1" parent="1">
          <mxGeometry x="30" y="20" width="760" height="60" as="geometry" />
        </mxCell>
      </root>
    </mxGraphModel>
  </diagram>
  <diagram name="3 - Écrans &quot;Appui&quot;" id="TnXunKA4dT98rdRdXsYW">
    <mxGraphModel dx="1485" dy="877" grid="1" gridSize="10" guides="1" tooltips="1" connect="1" arrows="1" fold="1" page="1" pageScale="1" pageWidth="827" pageHeight="1169" math="0" shadow="0">
      <root>
        <mxCell id="0" />
        <mxCell id="1" parent="0" />
        <mxCell id="WB3WMhzuc1Qa4yEraiIv-1" value="Écran &quot;Appui&quot;" style="shape=process;whiteSpace=wrap;html=1;backgroundOutline=1;size=0.02631578947368421;fontSize=16;" parent="1" vertex="1">
          <mxGeometry x="40" y="20" width="760" height="60" as="geometry" />
        </mxCell>
        <mxCell id="WB3WMhzuc1Qa4yEraiIv-2" value="Création" style="swimlane;whiteSpace=wrap;html=1;" parent="1" vertex="1">
          <mxGeometry x="40" y="120" width="570" height="240" as="geometry" />
        </mxCell>
        <mxCell id="WB3WMhzuc1Qa4yEraiIv-6" value="Prénom" style="fillColor=none;strokeColor=none;align=left;fontSize=14;" parent="WB3WMhzuc1Qa4yEraiIv-2" vertex="1">
          <mxGeometry x="20" y="25" width="100" height="30" as="geometry" />
        </mxCell>
        <mxCell id="WB3WMhzuc1Qa4yEraiIv-7" value="Mark" style="html=1;shadow=0;dashed=0;shape=mxgraph.bootstrap.rrect;rSize=5;fillColor=#ffffff;strokeColor=#CED4DA;align=left;spacing=15;fontSize=14;fontColor=#6C767D;" parent="WB3WMhzuc1Qa4yEraiIv-2" vertex="1">
          <mxGeometry x="20" y="54" width="260" height="40" as="geometry" />
        </mxCell>
        <mxCell id="WB3WMhzuc1Qa4yEraiIv-8" value="Nom" style="fillColor=none;strokeColor=none;align=left;fontSize=14;" parent="WB3WMhzuc1Qa4yEraiIv-2" vertex="1">
          <mxGeometry x="290" y="25" width="100" height="30" as="geometry" />
        </mxCell>
        <mxCell id="WB3WMhzuc1Qa4yEraiIv-9" value="Otto" style="html=1;shadow=0;dashed=0;shape=mxgraph.bootstrap.rrect;rSize=5;fillColor=#ffffff;strokeColor=#CED4DA;align=left;spacing=15;fontSize=14;fontColor=#6C767D;" parent="WB3WMhzuc1Qa4yEraiIv-2" vertex="1">
          <mxGeometry x="290" y="54" width="260" height="40" as="geometry" />
        </mxCell>
        <mxCell id="WB3WMhzuc1Qa4yEraiIv-10" value="Email" style="fillColor=none;strokeColor=none;align=left;fontSize=14;" parent="WB3WMhzuc1Qa4yEraiIv-2" vertex="1">
          <mxGeometry x="20" y="100" width="100" height="30" as="geometry" />
        </mxCell>
        <mxCell id="WB3WMhzuc1Qa4yEraiIv-11" value="" style="html=1;shadow=0;dashed=0;shape=mxgraph.bootstrap.rrect;rSize=5;fillColor=#ffffff;strokeColor=#CED4DA;align=left;spacingLeft=50;fontSize=14;fontColor=#6C767D;" parent="WB3WMhzuc1Qa4yEraiIv-2" vertex="1">
          <mxGeometry x="20" y="130" width="260" height="40" as="geometry" />
        </mxCell>
        <mxCell id="WB3WMhzuc1Qa4yEraiIv-12" value="@" style="html=1;shadow=0;dashed=0;shape=mxgraph.bootstrap.leftButton;rSize=5;strokeColor=#CED4DA;fillColor=#f0f0f0;whiteSpace=wrap;resizeHeight=1;fontColor=#495057;" parent="WB3WMhzuc1Qa4yEraiIv-11" vertex="1">
          <mxGeometry width="40" height="40" relative="1" as="geometry" />
        </mxCell>
        <mxCell id="WB3WMhzuc1Qa4yEraiIv-22" value="Créer" style="html=1;shadow=0;dashed=0;shape=mxgraph.bootstrap.rrect;rSize=5;fillColor=#0085FC;strokeColor=none;align=center;spacing=15;fontSize=14;fontColor=#ffffff;" parent="WB3WMhzuc1Qa4yEraiIv-2" vertex="1">
          <mxGeometry x="350" y="190" width="120" height="40" as="geometry" />
        </mxCell>
        <mxCell id="ot63zcKjY-qZ7DZb_AVy-13" value="Sélectionner un modèle" style="rounded=1;fillColor=#F1F2F4;strokeColor=none;html=1;whiteSpace=wrap;fontColor=#596780;align=left;fontSize=12;spacingLeft=10;sketch=0;" vertex="1" parent="WB3WMhzuc1Qa4yEraiIv-2">
          <mxGeometry x="300" y="134" width="170" height="33" as="geometry" />
        </mxCell>
        <mxCell id="ot63zcKjY-qZ7DZb_AVy-14" value="" style="shape=triangle;direction=south;fillColor=#596780;strokeColor=none;html=1;sketch=0;" vertex="1" parent="ot63zcKjY-qZ7DZb_AVy-13">
          <mxGeometry x="1" y="0.5" width="12" height="6" relative="1" as="geometry">
            <mxPoint x="-20" y="-3" as="offset" />
          </mxGeometry>
        </mxCell>
        <mxCell id="ot63zcKjY-qZ7DZb_AVy-15" value="Modèle" style="fillColor=none;strokeColor=none;align=left;fontSize=14;" vertex="1" parent="WB3WMhzuc1Qa4yEraiIv-2">
          <mxGeometry x="300" y="104" width="100" height="30" as="geometry" />
        </mxCell>
        <mxCell id="ETTyxNjiLbgd_sgJ9Mv5-5" value="" style="group" parent="1" vertex="1" connectable="0">
          <mxGeometry x="580" y="100" width="50" height="50" as="geometry" />
        </mxCell>
        <mxCell id="ETTyxNjiLbgd_sgJ9Mv5-2" value="" style="ellipse;whiteSpace=wrap;html=1;" parent="ETTyxNjiLbgd_sgJ9Mv5-5" vertex="1">
          <mxGeometry width="50" height="50" as="geometry" />
        </mxCell>
        <mxCell id="ETTyxNjiLbgd_sgJ9Mv5-1" value="Appui" style="shape=umlActor;verticalLabelPosition=bottom;verticalAlign=top;html=1;outlineConnect=0;fontStyle=1;fontSize=10;spacing=-6;" parent="ETTyxNjiLbgd_sgJ9Mv5-5" vertex="1">
          <mxGeometry x="20" y="8" width="10" height="20" as="geometry" />
        </mxCell>
        <mxCell id="ETTyxNjiLbgd_sgJ9Mv5-20" value="" style="group" parent="1" vertex="1" connectable="0">
          <mxGeometry x="350" y="507" width="465" height="189" as="geometry" />
        </mxCell>
        <mxCell id="WB3WMhzuc1Qa4yEraiIv-26" value="Dossiers" style="html=1;fillColor=none;strokeColor=none;fontSize=11;align=left;fontColor=#596780;whiteSpace=wrap;sketch=1;hachureGap=4;pointerEvents=0;fontFamily=Architects Daughter;fontSource=https%3A%2F%2Ffonts.googleapis.com%2Fcss%3Ffamily%3DArchitects%2BDaughter;" parent="ETTyxNjiLbgd_sgJ9Mv5-20" vertex="1">
          <mxGeometry width="150" height="20" as="geometry" />
        </mxCell>
        <mxCell id="WB3WMhzuc1Qa4yEraiIv-29" value="Updated" style="html=1;fillColor=none;strokeColor=none;fontSize=11;align=left;fontColor=#596780;whiteSpace=wrap;sketch=1;hachureGap=4;pointerEvents=0;fontFamily=Architects Daughter;fontSource=https%3A%2F%2Ffonts.googleapis.com%2Fcss%3Ffamily%3DArchitects%2BDaughter;" parent="ETTyxNjiLbgd_sgJ9Mv5-20" vertex="1">
          <mxGeometry x="295" width="90" height="20" as="geometry" />
        </mxCell>
        <mxCell id="WB3WMhzuc1Qa4yEraiIv-31" value="Builds" style="html=1;fillColor=none;strokeColor=none;fontSize=11;align=center;fontColor=#596780;whiteSpace=wrap;sketch=1;hachureGap=4;pointerEvents=0;fontFamily=Architects Daughter;fontSource=https%3A%2F%2Ffonts.googleapis.com%2Fcss%3Ffamily%3DArchitects%2BDaughter;" parent="ETTyxNjiLbgd_sgJ9Mv5-20" vertex="1">
          <mxGeometry x="395" width="40" height="20" as="geometry" />
        </mxCell>
        <mxCell id="WB3WMhzuc1Qa4yEraiIv-32" value="" style="shape=line;strokeWidth=2;html=1;strokeColor=#DFE1E5;resizeWidth=1;sketch=1;hachureGap=4;pointerEvents=0;fontFamily=Architects Daughter;fontSource=https%3A%2F%2Ffonts.googleapis.com%2Fcss%3Ffamily%3DArchitects%2BDaughter;fontSize=20;" parent="ETTyxNjiLbgd_sgJ9Mv5-20" vertex="1">
          <mxGeometry y="20" width="465" height="10" as="geometry" />
        </mxCell>
        <mxCell id="WB3WMhzuc1Qa4yEraiIv-34" value="staging" style="strokeColor=none;fillColor=none;fontSize=12;fontColor=#596780;align=left;html=1;sketch=1;hachureGap=4;pointerEvents=0;fontFamily=Architects Daughter;fontSource=https%3A%2F%2Ffonts.googleapis.com%2Fcss%3Ffamily%3DArchitects%2BDaughter;" parent="ETTyxNjiLbgd_sgJ9Mv5-20" vertex="1">
          <mxGeometry y="31" width="50" height="20" as="geometry" />
        </mxCell>
        <mxCell id="WB3WMhzuc1Qa4yEraiIv-35" value="Main Branch" style="strokeColor=none;fillColor=#EDEEEF;fontSize=11;fontColor=#596780;rounded=1;html=1;sketch=1;hachureGap=4;pointerEvents=0;fontFamily=Architects Daughter;fontSource=https%3A%2F%2Ffonts.googleapis.com%2Fcss%3Ffamily%3DArchitects%2BDaughter;" parent="ETTyxNjiLbgd_sgJ9Mv5-20" vertex="1">
          <mxGeometry x="50" y="31" width="65" height="20" as="geometry" />
        </mxCell>
        <mxCell id="WB3WMhzuc1Qa4yEraiIv-36" value="28 minutes ago" style="strokeColor=none;fillColor=none;fontSize=12;fontColor=#596780;align=left;html=1;sketch=1;hachureGap=4;pointerEvents=0;fontFamily=Architects Daughter;fontSource=https%3A%2F%2Ffonts.googleapis.com%2Fcss%3Ffamily%3DArchitects%2BDaughter;" parent="ETTyxNjiLbgd_sgJ9Mv5-20" vertex="1">
          <mxGeometry x="295" y="31" width="50" height="20" as="geometry" />
        </mxCell>
        <mxCell id="WB3WMhzuc1Qa4yEraiIv-37" value="&amp;#8226;&amp;#8226;&amp;#8226;" style="shape=ellipse;fillColor=#0057D8;strokeColor=none;fontColor=#ffffff;align=center;verticalAlign=middle;whiteSpace=wrap;fontSize=10;fontStyle=0;html=1;sketch=0;hachureGap=4;pointerEvents=0;fontFamily=Architects Daughter;fontSource=https%3A%2F%2Ffonts.googleapis.com%2Fcss%3Ffamily%3DArchitects%2BDaughter;" parent="ETTyxNjiLbgd_sgJ9Mv5-20" vertex="1">
          <mxGeometry x="410" y="33" width="16" height="16" as="geometry" />
        </mxCell>
        <mxCell id="WB3WMhzuc1Qa4yEraiIv-42" value="abhin/repo/api/allow_repo_updates" style="strokeColor=none;fillColor=none;fontSize=12;fontColor=#596780;align=left;html=1;sketch=1;hachureGap=4;pointerEvents=0;fontFamily=Architects Daughter;fontSource=https%3A%2F%2Ffonts.googleapis.com%2Fcss%3Ffamily%3DArchitects%2BDaughter;" parent="ETTyxNjiLbgd_sgJ9Mv5-20" vertex="1">
          <mxGeometry y="61" width="240" height="20" as="geometry" />
        </mxCell>
        <mxCell id="WB3WMhzuc1Qa4yEraiIv-46" value="5 minutes ago" style="strokeColor=none;fillColor=none;fontSize=12;fontColor=#596780;align=left;html=1;sketch=1;hachureGap=4;pointerEvents=0;fontFamily=Architects Daughter;fontSource=https%3A%2F%2Ffonts.googleapis.com%2Fcss%3Ffamily%3DArchitects%2BDaughter;" parent="ETTyxNjiLbgd_sgJ9Mv5-20" vertex="1">
          <mxGeometry x="295" y="61" width="50" height="20" as="geometry" />
        </mxCell>
        <mxCell id="WB3WMhzuc1Qa4yEraiIv-49" value="&amp;#8226;&amp;#8226;&amp;#8226;" style="shape=ellipse;fillColor=#0057D8;strokeColor=none;fontColor=#ffffff;align=center;verticalAlign=middle;whiteSpace=wrap;fontSize=10;fontStyle=0;html=1;sketch=0;hachureGap=4;pointerEvents=0;fontFamily=Architects Daughter;fontSource=https%3A%2F%2Ffonts.googleapis.com%2Fcss%3Ffamily%3DArchitects%2BDaughter;" parent="ETTyxNjiLbgd_sgJ9Mv5-20" vertex="1">
          <mxGeometry x="410" y="63" width="16" height="16" as="geometry" />
        </mxCell>
        <mxCell id="WB3WMhzuc1Qa4yEraiIv-50" value="zdavis/BBCDEV-1577" style="strokeColor=none;fillColor=none;fontSize=12;fontColor=#596780;align=left;html=1;sketch=1;hachureGap=4;pointerEvents=0;fontFamily=Architects Daughter;fontSource=https%3A%2F%2Ffonts.googleapis.com%2Fcss%3Ffamily%3DArchitects%2BDaughter;" parent="ETTyxNjiLbgd_sgJ9Mv5-20" vertex="1">
          <mxGeometry y="91" width="240" height="20" as="geometry" />
        </mxCell>
        <mxCell id="WB3WMhzuc1Qa4yEraiIv-54" value="5 minutes ago" style="strokeColor=none;fillColor=none;fontSize=12;fontColor=#596780;align=left;html=1;sketch=1;hachureGap=4;pointerEvents=0;fontFamily=Architects Daughter;fontSource=https%3A%2F%2Ffonts.googleapis.com%2Fcss%3Ffamily%3DArchitects%2BDaughter;" parent="ETTyxNjiLbgd_sgJ9Mv5-20" vertex="1">
          <mxGeometry x="295" y="91" width="50" height="20" as="geometry" />
        </mxCell>
        <mxCell id="WB3WMhzuc1Qa4yEraiIv-57" value="&amp;#8226;&amp;#8226;&amp;#8226;" style="shape=ellipse;fillColor=#0057D8;strokeColor=none;fontColor=#ffffff;align=center;verticalAlign=middle;whiteSpace=wrap;fontSize=10;fontStyle=0;html=1;sketch=0;hachureGap=4;pointerEvents=0;fontFamily=Architects Daughter;fontSource=https%3A%2F%2Ffonts.googleapis.com%2Fcss%3Ffamily%3DArchitects%2BDaughter;" parent="ETTyxNjiLbgd_sgJ9Mv5-20" vertex="1">
          <mxGeometry x="410" y="93" width="16" height="16" as="geometry" />
        </mxCell>
        <mxCell id="WB3WMhzuc1Qa4yEraiIv-58" value="tkells/BBCDEV-1631-fix-require-account=access" style="strokeColor=none;fillColor=none;fontSize=12;fontColor=#596780;align=left;html=1;sketch=1;hachureGap=4;pointerEvents=0;fontFamily=Architects Daughter;fontSource=https%3A%2F%2Ffonts.googleapis.com%2Fcss%3Ffamily%3DArchitects%2BDaughter;" parent="ETTyxNjiLbgd_sgJ9Mv5-20" vertex="1">
          <mxGeometry y="121" width="240" height="20" as="geometry" />
        </mxCell>
        <mxCell id="WB3WMhzuc1Qa4yEraiIv-62" value="25 minutes ago" style="strokeColor=none;fillColor=none;fontSize=12;fontColor=#596780;align=left;html=1;sketch=1;hachureGap=4;pointerEvents=0;fontFamily=Architects Daughter;fontSource=https%3A%2F%2Ffonts.googleapis.com%2Fcss%3Ffamily%3DArchitects%2BDaughter;" parent="ETTyxNjiLbgd_sgJ9Mv5-20" vertex="1">
          <mxGeometry x="295" y="121" width="50" height="20" as="geometry" />
        </mxCell>
        <mxCell id="WB3WMhzuc1Qa4yEraiIv-65" value="&amp;#8226;&amp;#8226;&amp;#8226;" style="shape=ellipse;fillColor=#0057D8;strokeColor=none;fontColor=#ffffff;align=center;verticalAlign=middle;whiteSpace=wrap;fontSize=10;fontStyle=0;html=1;sketch=0;hachureGap=4;pointerEvents=0;fontFamily=Architects Daughter;fontSource=https%3A%2F%2Ffonts.googleapis.com%2Fcss%3Ffamily%3DArchitects%2BDaughter;" parent="ETTyxNjiLbgd_sgJ9Mv5-20" vertex="1">
          <mxGeometry x="410" y="123" width="16" height="16" as="geometry" />
        </mxCell>
        <mxCell id="WB3WMhzuc1Qa4yEraiIv-66" value="jmooring/BBDEV-1603" style="strokeColor=none;fillColor=none;fontSize=12;fontColor=#596780;align=left;html=1;sketch=1;hachureGap=4;pointerEvents=0;fontFamily=Architects Daughter;fontSource=https%3A%2F%2Ffonts.googleapis.com%2Fcss%3Ffamily%3DArchitects%2BDaughter;" parent="ETTyxNjiLbgd_sgJ9Mv5-20" vertex="1">
          <mxGeometry y="151" width="240" height="20" as="geometry" />
        </mxCell>
        <mxCell id="WB3WMhzuc1Qa4yEraiIv-70" value="29 minutes ago" style="strokeColor=none;fillColor=none;fontSize=12;fontColor=#596780;align=left;html=1;sketch=1;hachureGap=4;pointerEvents=0;fontFamily=Architects Daughter;fontSource=https%3A%2F%2Ffonts.googleapis.com%2Fcss%3Ffamily%3DArchitects%2BDaughter;" parent="ETTyxNjiLbgd_sgJ9Mv5-20" vertex="1">
          <mxGeometry x="295" y="151" width="50" height="20" as="geometry" />
        </mxCell>
        <mxCell id="WB3WMhzuc1Qa4yEraiIv-73" value="" style="html=1;shadow=0;dashed=0;shape=mxgraph.atlassian.checkbox;fillColor=#008465;strokeColor=none;fontColor=#ffffff;align=center;verticalAlign=middle;whiteSpace=wrap;fontSize=10;fontStyle=0;html=1;sketch=0;hachureGap=4;pointerEvents=0;fontFamily=Architects Daughter;fontSource=https%3A%2F%2Ffonts.googleapis.com%2Fcss%3Ffamily%3DArchitects%2BDaughter;" parent="ETTyxNjiLbgd_sgJ9Mv5-20" vertex="1">
          <mxGeometry x="410" y="153" width="16" height="16" as="geometry" />
        </mxCell>
        <mxCell id="WB3WMhzuc1Qa4yEraiIv-74" value="" style="shape=line;strokeWidth=2;html=1;strokeColor=#DFE1E5;resizeWidth=1;sketch=1;hachureGap=4;pointerEvents=0;fontFamily=Architects Daughter;fontSource=https%3A%2F%2Ffonts.googleapis.com%2Fcss%3Ffamily%3DArchitects%2BDaughter;fontSize=20;" parent="ETTyxNjiLbgd_sgJ9Mv5-20" vertex="1">
          <mxGeometry y="179" width="455" height="10" as="geometry" />
        </mxCell>
        <mxCell id="ETTyxNjiLbgd_sgJ9Mv5-16" value="" style="group" parent="1" vertex="1" connectable="0">
          <mxGeometry x="590" y="507" width="50" height="50" as="geometry" />
        </mxCell>
        <mxCell id="ETTyxNjiLbgd_sgJ9Mv5-17" value="" style="group" parent="ETTyxNjiLbgd_sgJ9Mv5-16" vertex="1" connectable="0">
          <mxGeometry width="50" height="50" as="geometry" />
        </mxCell>
        <mxCell id="ETTyxNjiLbgd_sgJ9Mv5-18" value="" style="ellipse;whiteSpace=wrap;html=1;" parent="ETTyxNjiLbgd_sgJ9Mv5-17" vertex="1">
          <mxGeometry width="50" height="50" as="geometry" />
        </mxCell>
        <mxCell id="ETTyxNjiLbgd_sgJ9Mv5-19" value="Appui" style="shape=umlActor;verticalLabelPosition=bottom;verticalAlign=top;html=1;outlineConnect=0;fontStyle=1;fontSize=10;spacing=-6;" parent="ETTyxNjiLbgd_sgJ9Mv5-17" vertex="1">
          <mxGeometry x="20" y="8" width="10" height="20" as="geometry" />
        </mxCell>
        <mxCell id="WB3WMhzuc1Qa4yEraiIv-85" value="" style="shape=flexArrow;endArrow=classic;html=1;rounded=0;" parent="1" edge="1">
          <mxGeometry width="50" height="50" relative="1" as="geometry">
            <mxPoint x="570" y="467" as="sourcePoint" />
            <mxPoint x="550" y="577" as="targetPoint" />
          </mxGeometry>
        </mxCell>
        <mxCell id="ETTyxNjiLbgd_sgJ9Mv5-65" value="Archive ZIP" style="shape=cube;whiteSpace=wrap;html=1;boundedLbl=1;backgroundOutline=1;darkOpacity=0.05;darkOpacity2=0.1;size=10;" parent="1" vertex="1">
          <mxGeometry x="650" y="860" width="110" height="60" as="geometry" />
        </mxCell>
        <mxCell id="ETTyxNjiLbgd_sgJ9Mv5-66" style="edgeStyle=orthogonalEdgeStyle;rounded=0;orthogonalLoop=1;jettySize=auto;html=1;" parent="1" source="WB3WMhzuc1Qa4yEraiIv-58" target="ETTyxNjiLbgd_sgJ9Mv5-65" edge="1">
          <mxGeometry relative="1" as="geometry">
            <Array as="points">
              <mxPoint x="600" y="638" />
              <mxPoint x="600" y="880" />
            </Array>
          </mxGeometry>
        </mxCell>
        <mxCell id="ETTyxNjiLbgd_sgJ9Mv5-67" value="TÉLÉCHARGER&lt;br&gt;UN DOSSIER&lt;br&gt;OU&lt;br&gt;des PDF INDIVIDUELS" style="edgeLabel;html=1;align=center;verticalAlign=middle;resizable=0;points=[];fontStyle=1;fontSize=16;" parent="ETTyxNjiLbgd_sgJ9Mv5-66" vertex="1" connectable="0">
          <mxGeometry x="-0.1326" relative="1" as="geometry">
            <mxPoint y="-30" as="offset" />
          </mxGeometry>
        </mxCell>
        <mxCell id="XRhhWXqhEugZsElsoaOq-3" value="PDF" style="shape=cube;whiteSpace=wrap;html=1;boundedLbl=1;backgroundOutline=1;darkOpacity=0.05;darkOpacity2=0.1;size=10;" vertex="1" parent="1">
          <mxGeometry x="690" y="790" width="70" height="40" as="geometry" />
        </mxCell>
        <mxCell id="XRhhWXqhEugZsElsoaOq-4" value="PDF" style="shape=cube;whiteSpace=wrap;html=1;boundedLbl=1;backgroundOutline=1;darkOpacity=0.05;darkOpacity2=0.1;size=10;" vertex="1" parent="1">
          <mxGeometry x="707" y="770" width="70" height="40" as="geometry" />
        </mxCell>
        <mxCell id="XRhhWXqhEugZsElsoaOq-5" style="edgeStyle=orthogonalEdgeStyle;rounded=0;orthogonalLoop=1;jettySize=auto;html=1;entryX=0;entryY=0;entryDx=0;entryDy=15;entryPerimeter=0;" edge="1" parent="1" source="WB3WMhzuc1Qa4yEraiIv-58" target="XRhhWXqhEugZsElsoaOq-3">
          <mxGeometry relative="1" as="geometry" />
        </mxCell>
      </root>
    </mxGraphModel>
  </diagram>
  <diagram id="-HD-VNrZeDYHYBR8h8L2" name="4 - Écrans &quot;Individu&quot;">
    <mxGraphModel dx="2025" dy="1196" grid="1" gridSize="10" guides="1" tooltips="1" connect="1" arrows="1" fold="1" page="1" pageScale="1" pageWidth="827" pageHeight="1169" math="0" shadow="0">
      <root>
        <mxCell id="0" />
        <mxCell id="1" parent="0" />
        <mxCell id="tRcen_VJDGdbqMozM8l--1" value="" style="group" vertex="1" connectable="0" parent="1">
          <mxGeometry x="80" y="423.5" width="293.25" height="210" as="geometry" />
        </mxCell>
        <mxCell id="tRcen_VJDGdbqMozM8l--2" value="Username" style="html=1;shadow=0;dashed=0;shape=mxgraph.bootstrap.rrect;rSize=5;strokeColor=#CED4DA;html=1;whiteSpace=wrap;fillColor=#FFFFFF;fontColor=#7D868C;align=left;spacing=15;spacingLeft=40;fontSize=14;" vertex="1" parent="tRcen_VJDGdbqMozM8l--1">
          <mxGeometry width="293.25" height="25.454545454545453" as="geometry" />
        </mxCell>
        <mxCell id="tRcen_VJDGdbqMozM8l--3" value="@" style="html=1;shadow=0;dashed=0;shape=mxgraph.bootstrap.leftButton;strokeColor=inherit;gradientColor=inherit;fontColor=inherit;fillColor=#E9ECEF;rSize=5;perimeter=none;whiteSpace=wrap;resizeHeight=1;fontSize=14;" vertex="1" parent="tRcen_VJDGdbqMozM8l--2">
          <mxGeometry width="14.662499999999998" height="25.454545454545453" as="geometry" />
        </mxCell>
        <mxCell id="tRcen_VJDGdbqMozM8l--4" value="Recipient&#39;s username" style="html=1;shadow=0;dashed=0;shape=mxgraph.bootstrap.rrect;rSize=5;strokeColor=#CED4DA;html=1;whiteSpace=wrap;fillColor=#FFFFFF;fontColor=#7D868C;align=left;spacingLeft=0;spacing=15;fontSize=14;" vertex="1" parent="tRcen_VJDGdbqMozM8l--1">
          <mxGeometry y="38.18181818181818" width="293.25" height="25.454545454545453" as="geometry" />
        </mxCell>
        <mxCell id="tRcen_VJDGdbqMozM8l--5" value="@example.com" style="html=1;shadow=0;dashed=0;shape=mxgraph.bootstrap.rightButton;strokeColor=inherit;gradientColor=inherit;fontColor=inherit;fillColor=#E9ECEF;rSize=5;perimeter=none;whiteSpace=wrap;resizeHeight=1;fontSize=14;" vertex="1" parent="tRcen_VJDGdbqMozM8l--4">
          <mxGeometry x="1" width="120" height="25.454545454545453" relative="1" as="geometry">
            <mxPoint x="-120" as="offset" />
          </mxGeometry>
        </mxCell>
        <mxCell id="tRcen_VJDGdbqMozM8l--6" value="Your vanity URL" style="html=1;shadow=0;dashed=0;shape=mxgraph.bootstrap.rrect;rSize=5;strokeColor=none;html=1;whiteSpace=wrap;fillColor=none;fontColor=#212529;align=left;spacingLeft=0;fontSize=14;" vertex="1" parent="tRcen_VJDGdbqMozM8l--1">
          <mxGeometry y="70" width="130" height="19.09" as="geometry" />
        </mxCell>
        <mxCell id="tRcen_VJDGdbqMozM8l--7" value="" style="html=1;shadow=0;dashed=0;shape=mxgraph.bootstrap.rrect;rSize=5;strokeColor=#CED4DA;html=1;whiteSpace=wrap;fillColor=#FFFFFF;fontColor=#7D868C;align=left;spacing=15;spacingLeft=40;fontSize=14;" vertex="1" parent="tRcen_VJDGdbqMozM8l--1">
          <mxGeometry y="89.0909090909091" width="293.25" height="25.454545454545453" as="geometry" />
        </mxCell>
        <mxCell id="tRcen_VJDGdbqMozM8l--8" value="" style="html=1;shadow=0;dashed=0;shape=mxgraph.bootstrap.leftButton;strokeColor=inherit;gradientColor=inherit;fontColor=inherit;fillColor=#E9ECEF;rSize=5;perimeter=none;whiteSpace=wrap;resizeHeight=1;fontSize=14;" vertex="1" parent="tRcen_VJDGdbqMozM8l--7">
          <mxGeometry width="69.64687500000001" height="25.454545454545453" as="geometry" />
        </mxCell>
        <mxCell id="tRcen_VJDGdbqMozM8l--9" value="" style="html=1;shadow=0;dashed=0;shape=mxgraph.bootstrap.rrect;rSize=5;strokeColor=#CED4DA;html=1;whiteSpace=wrap;fillColor=#FFFFFF;fontColor=#7D868C;align=left;spacing=15;spacingLeft=40;fontSize=14;" vertex="1" parent="tRcen_VJDGdbqMozM8l--1">
          <mxGeometry y="127.27272727272727" width="293.25" height="25.454545454545453" as="geometry" />
        </mxCell>
        <mxCell id="tRcen_VJDGdbqMozM8l--10" value="$" style="html=1;shadow=0;dashed=0;shape=mxgraph.bootstrap.leftButton;strokeColor=inherit;gradientColor=inherit;fontColor=inherit;fillColor=#E9ECEF;rSize=5;perimeter=none;whiteSpace=wrap;resizeHeight=1;fontSize=14;" vertex="1" parent="tRcen_VJDGdbqMozM8l--9">
          <mxGeometry width="14.662499999999998" height="25.454545454545453" as="geometry" />
        </mxCell>
        <mxCell id="tRcen_VJDGdbqMozM8l--11" value=".00" style="html=1;shadow=0;dashed=0;shape=mxgraph.bootstrap.rightButton;strokeColor=inherit;gradientColor=inherit;fontColor=inherit;fillColor=#E9ECEF;rSize=5;perimeter=none;whiteSpace=wrap;resizeHeight=1;fontSize=14;" vertex="1" parent="tRcen_VJDGdbqMozM8l--9">
          <mxGeometry x="1" width="40" height="25.454545454545453" relative="1" as="geometry">
            <mxPoint x="-40" as="offset" />
          </mxGeometry>
        </mxCell>
        <mxCell id="tRcen_VJDGdbqMozM8l--12" value="" style="html=1;shadow=0;dashed=0;shape=mxgraph.bootstrap.rrect;rSize=5;strokeColor=#CED4DA;html=1;whiteSpace=wrap;fillColor=#FFFFFF;fontColor=#7D868C;align=left;spacing=15;spacingLeft=40;fontSize=14;" vertex="1" parent="tRcen_VJDGdbqMozM8l--1">
          <mxGeometry y="165.45454545454544" width="293.25" height="44.54545454545455" as="geometry" />
        </mxCell>
        <mxCell id="tRcen_VJDGdbqMozM8l--13" value="With textarea" style="html=1;shadow=0;dashed=0;shape=mxgraph.bootstrap.leftButton;strokeColor=inherit;gradientColor=inherit;fontColor=inherit;fillColor=#E9ECEF;rSize=5;perimeter=none;whiteSpace=wrap;resizeHeight=1;fontSize=14;" vertex="1" parent="tRcen_VJDGdbqMozM8l--12">
          <mxGeometry width="36.65625" height="44.54545454545455" as="geometry" />
        </mxCell>
        <mxCell id="tRcen_VJDGdbqMozM8l--14" value="" style="group" vertex="1" connectable="0" parent="1">
          <mxGeometry x="300" y="360" width="50" height="50" as="geometry" />
        </mxCell>
        <mxCell id="tRcen_VJDGdbqMozM8l--15" value="" style="ellipse;whiteSpace=wrap;html=1;" vertex="1" parent="tRcen_VJDGdbqMozM8l--14">
          <mxGeometry width="50" height="50" as="geometry" />
        </mxCell>
        <mxCell id="tRcen_VJDGdbqMozM8l--16" value="Individu" style="shape=umlActor;verticalLabelPosition=bottom;verticalAlign=top;html=1;outlineConnect=0;fontStyle=1;fontSize=10;spacing=-6;" vertex="1" parent="tRcen_VJDGdbqMozM8l--14">
          <mxGeometry x="20" y="6" width="10" height="20" as="geometry" />
        </mxCell>
        <mxCell id="NhYqKBHbUxSP_DyDsvtT-1" value="Écran &quot;Individu&quot;" style="shape=process;whiteSpace=wrap;html=1;backgroundOutline=1;size=0.02631578947368421;fontSize=16;" vertex="1" parent="1">
          <mxGeometry x="40" y="20" width="760" height="60" as="geometry" />
        </mxCell>
      </root>
    </mxGraphModel>
  </diagram>
</mxfile>
